medium
0.997
26
120
58 67 93
2 2 4
0.269 0.161 0.149 0.265 0.059 0.097 0.0 0.0 0.0
0.158 0.018 0.101 0.303 0.321 0.099 0.0 0.0 0.0
0.21 0.185 0.09 0.228 0.078 0.209 0.0 0.0 0.0
0.23 0.229 0.132 0.069 0.083 0.257 0.0 0.0 0.0
0.398 0.08 0.178 0.126 0.048 0.17 0.0 0.0 0.0
0.293 0.123 0.248 0.042 0.065 0.229 0.0 0.0 0.0
0.138 0.135 0.21 0.147 0.158 0.212 0.0 0.0 0.0
0.331 0.205 0.121 0.041 0.051 0.251 0.0 0.0 0.0
0.289 0.212 0.259 0.101 0.088 0.051 0.0 0.0 0.0
0.033 0.281 0.149 0.111 0.199 0.227 0.0 0.0 0.0
0.137 0.128 0.088 0.164 0.284 0.199 0.0 0.0 0.0
0.061 0.111 0.249 0.222 0.169 0.188 0.0 0.0 0.0
0.229 0.233 0.171 0.211 0.054 0.102 0.0 0.0 0.0
0.027 0.18 0.162 0.16 0.319 0.152 0.0 0.0 0.0
0.027 0.05 0.235 0.123 0.312 0.253 0.0 0.0 0.0
0.239 0.08 0.29 0.087 0.119 0.185 0.0 0.0 0.0
0.015 0.159 0.273 0.015 0.354 0.184 0.0 0.0 0.0
0.269 0.171 0.035 0.08 0.333 0.112 0.0 0.0 0.0
0.192 0.198 0.295 0.017 0.231 0.067 0.0 0.0 0.0
0.057 0.258 0.242 0.2 0.185 0.058 0.0 0.0 0.0
0.303 0.04 0.11 0.042 0.211 0.294 0.0 0.0 0.0
0.139 0.138 0.246 0.256 0.022 0.199 0.0 0.0 0.0
0.13 0.201 0.23 0.039 0.383 0.017 0.0 0.0 0.0
0.082 0.544 0.08 0.08 0.189 0.025 0.0 0.0 0.0
0.002 0.234 0.098 0.03 0.41 0.226 0.0 0.0 0.0
0.378 0.007 0.229 0.189 0.034 0.163 0.0 0.0 0.0
0.242 0.145 0.223 0.155 0.138 0.097 0.0 0.0 0.0
