large
0.919
29
96
69 50 50 66 52
1 2 5 1 1
0.243 0.147 0.045 0.187 0.207 0.158 0.013 0.0 0.0 0.0 0.0
0.106 0.071 0.082 0.238 0.025 0.232 0.246 0.0 0.0 0.0 0.0
0.272 0.018 0.088 0.25 0.111 0.114 0.147 0.0 0.0 0.0 0.0
0.019 0.175 0.084 0.164 0.198 0.196 0.164 0.0 0.0 0.0 0.0
0.084 0.1 0.255 0.163 0.114 0.058 0.226 0.0 0.0 0.0 0.0
0.027 0.158 0.208 0.303 0.048 0.213 0.043 0.0 0.0 0.0 0.0
0.089 0.073 0.17 0.133 0.179 0.191 0.165 0.0 0.0 0.0 0.0
0.226 0.106 0.194 0.126 0.201 0.09 0.057 0.0 0.0 0.0 0.0
0.195 0.088 0.019 0.118 0.332 0.157 0.091 0.0 0.0 0.0 0.0
0.083 0.171 0.159 0.169 0.192 0.024 0.202 0.0 0.0 0.0 0.0
0.205 0.131 0.001 0.091 0.175 0.164 0.233 0.0 0.0 0.0 0.0
0.005 0.288 0.0 0.256 0.071 0.032 0.348 0.0 0.0 0.0 0.0
0.029 0.11 0.189 0.306 0.014 0.08 0.272 0.0 0.0 0.0 0.0
0.23 0.192 0.228 0.04 0.006 0.114 0.19 0.0 0.0 0.0 0.0
0.18 0.164 0.165 0.039 0.21 0.151 0.091 0.0 0.0 0.0 0.0
0.262 0.336 0.028 0.121 0.158 0.083 0.012 0.0 0.0 0.0 0.0
0.149 0.296 0.113 0.133 0.163 0.039 0.107 0.0 0.0 0.0 0.0
0.165 0.138 0.145 0.166 0.152 0.176 0.058 0.0 0.0 0.0 0.0
0.123 0.102 0.375 0.234 0.058 0.034 0.074 0.0 0.0 0.0 0.0
0.194 0.211 0.035 0.145 0.183 0.094 0.138 0.0 0.0 0.0 0.0
0.06 0.075 0.104 0.159 0.222 0.27 0.11 0.0 0.0 0.0 0.0
0.087 0.11 0.196 0.052 0.177 0.206 0.172 0.0 0.0 0.0 0.0
0.218 0.106 0.114 0.259 0.057 0.103 0.143 0.0 0.0 0.0 0.0
0.185 0.056 0.225 0.163 0.022 0.078 0.271 0.0 0.0 0.0 0.0
0.04 0.041 0.213 0.243 0.186 0.182 0.095 0.0 0.0 0.0 0.0
0.101 0.042 0.225 0.17 0.09 0.119 0.253 0.0 0.0 0.0 0.0
0.186 0.179 0.172 0.176 0.021 0.209 0.057 0.0 0.0 0.0 0.0
0.275 0.255 0.058 0.102 0.107 0.158 0.045 0.0 0.0 0.0 0.0
0.067 0.21 0.09 0.027 0.229 0.272 0.105 0.0 0.0 0.0 0.0
0.201 0.271 0.185 0.015 0.074 0.182 0.072 0.0 0.0 0.0 0.0
0.085 0.185 0.27 0.274 0.094 0.003 0.089 0.0 0.0 0.0 0.0
0.142 0.177 0.155 0.112 0.135 0.164 0.115 0.0 0.0 0.0 0.0
0.373 0.202 0.157 0.002 0.141 0.008 0.117 0.0 0.0 0.0 0.0
0.014 0.014 0.212 0.355 0.069 0.215 0.121 0.0 0.0 0.0 0.0
0.091 0.061 0.027 0.208 0.196 0.204 0.213 0.0 0.0 0.0 0.0
0.053 0.125 0.044 0.136 0.178 0.154 0.31 0.0 0.0 0.0 0.0
0.005 0.035 0.16 0.216 0.195 0.207 0.182 0.0 0.0 0.0 0.0
0.11 0.216 0.245 0.087 0.211 0.007 0.124 0.0 0.0 0.0 0.0
0.067 0.028 0.028 0.285 0.219 0.315 0.058 0.0 0.0 0.0 0.0
0.03 0.003 0.215 0.054 0.244 0.124 0.33 0.0 0.0 0.0 0.0
0.222 0.151 0.179 0.185 0.061 0.01 0.192 0.0 0.0 0.0 0.0
0.05 0.074 0.362 0.043 0.089 0.381 0.001 0.0 0.0 0.0 0.0
0.14 0.214 0.124 0.088 0.246 0.159 0.029 0.0 0.0 0.0 0.0
0.014 0.083 0.336 0.349 0.046 0.117 0.055 0.0 0.0 0.0 0.0
0.093 0.383 0.035 0.019 0.015 0.395 0.06 0.0 0.0 0.0 0.0
0.112 0.18 0.18 0.186 0.215 0.08 0.047 0.0 0.0 0.0 0.0
0.024 0.323 0.126 0.13 0.155 0.12 0.122 0.0 0.0 0.0 0.0
0.119 0.18 0.163 0.144 0.085 0.142 0.167 0.0 0.0 0.0 0.0
0.199 0.065 0.191 0.106 0.198 0.132 0.109 0.0 0.0 0.0 0.0
0.242 0.23 0.193 0.129 0.049 0.153 0.004 0.0 0.0 0.0 0.0
0.094 0.161 0.193 0.041 0.142 0.211 0.158 0.0 0.0 0.0 0.0
0.154 0.13 0.152 0.144 0.076 0.117 0.227 0.0 0.0 0.0 0.0
0.202 0.169 0.078 0.029 0.231 0.099 0.192 0.0 0.0 0.0 0.0
0.202 0.204 0.061 0.134 0.199 0.052 0.148 0.0 0.0 0.0 0.0
0.2 0.206 0.129 0.257 0.106 0.038 0.064 0.0 0.0 0.0 0.0
