tiny
0.911
19
109
97 83
1 1
0.105 0.411 0.16 0.324
0.137 0.234 0.321 0.308
0.062 0.585 0.339 0.014
0.432 0.145 0.255 0.168
0.35 0.209 0.16 0.281
0.198 0.209 0.543 0.05
0.355 0.253 0.15 0.242
0.225 0.314 0.287 0.174
