tiny
0.922
23
114
70 73
2 1
0.17 0.257 0.301 0.272
0.319 0.316 0.048 0.317
0.274 0.182 0.204 0.34
0.508 0.134 0.079 0.279
0.409 0.003 0.265 0.323
0.266 0.295 0.023 0.416
0.023 0.591 0.131 0.255
0.498 0.212 0.111 0.179
