500-254-604-945-586-546-1 cost 10.00 at depth 6
10-435-557-66-406-74-825-690-900 cost 12.00 at depth 8
1-237-533-957-327-1000 cost 9.00 at depth 5
950-893-362-2 cost 9.00 at depth 3
500-254-604-945-586-546-1 cost 10.00 at depth 6
10-435-557-66-406-74-825-690-900 cost 12.00 at depth 8
