small
0.996
24
111
97 94
4 4
0.258 0.266 0.102 0.051 0.122 0.201 0.0 0.0 0.0
0.148 0.297 0.203 0.115 0.054 0.183 0.0 0.0 0.0
0.034 0.038 0.251 0.347 0.238 0.092 0.0 0.0 0.0
0.004 0.38 0.057 0.268 0.165 0.126 0.0 0.0 0.0
0.242 0.221 0.146 0.245 0.039 0.107 0.0 0.0 0.0
0.202 0.014 0.166 0.247 0.141 0.23 0.0 0.0 0.0
0.105 0.194 0.232 0.012 0.285 0.172 0.0 0.0 0.0
0.24 0.135 0.113 0.266 0.193 0.053 0.0 0.0 0.0
0.273 0.018 0.157 0.267 0.081 0.204 0.0 0.0 0.0
0.193 0.204 0.209 0.025 0.192 0.177 0.0 0.0 0.0
0.037 0.483 0.231 0.172 0.051 0.026 0.0 0.0 0.0
0.122 0.089 0.241 0.176 0.201 0.171 0.0 0.0 0.0
0.248 0.215 0.133 0.247 0.125 0.032 0.0 0.0 0.0
0.274 0.008 0.275 0.136 0.228 0.079 0.0 0.0 0.0
0.018 0.186 0.189 0.186 0.162 0.259 0.0 0.0 0.0
0.109 0.223 0.263 0.19 0.166 0.049 0.0 0.0 0.0
0.155 0.055 0.241 0.038 0.239 0.272 0.0 0.0 0.0
0.031 0.195 0.303 0.119 0.328 0.024 0.0 0.0 0.0
