small
0.943
21
110
77 91
5 2
0.243 0.126 0.162 0.133 0.119 0.217 0.0 0.0 0.0
0.385 0.026 0.223 0.26 0.055 0.051 0.0 0.0 0.0
0.138 0.115 0.143 0.074 0.267 0.263 0.0 0.0 0.0
0.255 0.193 0.003 0.17 0.315 0.064 0.0 0.0 0.0
0.307 0.198 0.108 0.07 0.139 0.178 0.0 0.0 0.0
0.187 0.197 0.143 0.246 0.19 0.037 0.0 0.0 0.0
0.001 0.451 0.052 0.244 0.138 0.114 0.0 0.0 0.0
0.127 0.239 0.12 0.225 0.217 0.072 0.0 0.0 0.0
0.304 0.08 0.157 0.067 0.12 0.272 0.0 0.0 0.0
0.199 0.206 0.132 0.131 0.091 0.241 0.0 0.0 0.0
0.18 0.332 0.278 0.058 0.061 0.091 0.0 0.0 0.0
0.083 0.235 0.162 0.243 0.084 0.193 0.0 0.0 0.0
0.186 0.312 0.067 0.246 0.164 0.025 0.0 0.0 0.0
0.093 0.041 0.049 0.327 0.187 0.303 0.0 0.0 0.0
0.01 0.055 0.103 0.228 0.342 0.262 0.0 0.0 0.0
0.392 0.141 0.006 0.318 0.042 0.101 0.0 0.0 0.0
0.025 0.456 0.048 0.161 0.046 0.264 0.0 0.0 0.0
0.048 0.153 0.181 0.135 0.118 0.365 0.0 0.0 0.0
