mega
0.917
20
91
72 91 87 79 62 53 94
5 3 3 1 1 5 1
0.171 0.058 0.103 0.076 0.162 0.205 0.045 0.146 0.034 0.0 0.0 0.0 0.0 0.0 0.0 0.0 0.0 0.0 0.0 0.0 0.0
0.015 0.187 0.056 0.055 0.009 0.033 0.314 0.055 0.276 0.0 0.0 0.0 0.0 0.0 0.0 0.0 0.0 0.0 0.0 0.0 0.0
0.076 0.082 0.079 0.203 0.132 0.03 0.072 0.208 0.118 0.0 0.0 0.0 0.0 0.0 0.0 0.0 0.0 0.0 0.0 0.0 0.0
0.082 0.097 0.089 0.077 0.145 0.162 0.027 0.172 0.149 0.0 0.0 0.0 0.0 0.0 0.0 0.0 0.0 0.0 0.0 0.0 0.0
0.13 0.073 0.008 0.18 0.219 0.176 0.118 0.046 0.05 0.0 0.0 0.0 0.0 0.0 0.0 0.0 0.0 0.0 0.0 0.0 0.0
0.105 0.024 0.138 0.03 0.142 0.2 0.078 0.06 0.223 0.0 0.0 0.0 0.0 0.0 0.0 0.0 0.0 0.0 0.0 0.0 0.0
0.009 0.17 0.072 0.036 0.178 0.165 0.193 0.129 0.048 0.0 0.0 0.0 0.0 0.0 0.0 0.0 0.0 0.0 0.0 0.0 0.0
0.021 0.115 0.159 0.019 0.138 0.112 0.202 0.034 0.2 0.0 0.0 0.0 0.0 0.0 0.0 0.0 0.0 0.0 0.0 0.0 0.0
0.128 0.15 0.01 0.179 0.061 0.099 0.1 0.186 0.087 0.0 0.0 0.0 0.0 0.0 0.0 0.0 0.0 0.0 0.0 0.0 0.0
0.08 0.04 0.06 0.023 0.076 0.102 0.181 0.215 0.223 0.0 0.0 0.0 0.0 0.0 0.0 0.0 0.0 0.0 0.0 0.0 0.0
0.158 0.157 0.056 0.19 0.02 0.205 0.064 0.117 0.033 0.0 0.0 0.0 0.0 0.0 0.0 0.0 0.0 0.0 0.0 0.0 0.0
0.077 0.162 0.175 0.179 0.157 0.084 0.158 0.003 0.005 0.0 0.0 0.0 0.0 0.0 0.0 0.0 0.0 0.0 0.0 0.0 0.0
0.129 0.039 0.183 0.149 0.123 0.176 0.049 0.073 0.079 0.0 0.0 0.0 0.0 0.0 0.0 0.0 0.0 0.0 0.0 0.0 0.0
0.054 0.135 0.212 0.123 0.028 0.023 0.197 0.151 0.077 0.0 0.0 0.0 0.0 0.0 0.0 0.0 0.0 0.0 0.0 0.0 0.0
0.136 0.113 0.131 0.174 0.125 0.033 0.131 0.06 0.097 0.0 0.0 0.0 0.0 0.0 0.0 0.0 0.0 0.0 0.0 0.0 0.0
0.195 0.106 0.069 0.144 0.176 0.164 0.114 0.029 0.003 0.0 0.0 0.0 0.0 0.0 0.0 0.0 0.0 0.0 0.0 0.0 0.0
0.0 0.201 0.134 0.134 0.175 0.082 0.048 0.126 0.1 0.0 0.0 0.0 0.0 0.0 0.0 0.0 0.0 0.0 0.0 0.0 0.0
0.087 0.018 0.066 0.246 0.051 0.178 0.227 0.029 0.098 0.0 0.0 0.0 0.0 0.0 0.0 0.0 0.0 0.0 0.0 0.0 0.0
0.016 0.074 0.153 0.099 0.164 0.207 0.204 0.07 0.013 0.0 0.0 0.0 0.0 0.0 0.0 0.0 0.0 0.0 0.0 0.0 0.0
0.104 0.209 0.234 0.1 0.073 0.02 0.058 0.195 0.007 0.0 0.0 0.0 0.0 0.0 0.0 0.0 0.0 0.0 0.0 0.0 0.0
0.054 0.197 0.093 0.194 0.021 0.148 0.023 0.092 0.178 0.0 0.0 0.0 0.0 0.0 0.0 0.0 0.0 0.0 0.0 0.0 0.0
0.025 0.026 0.236 0.203 0.194 0.002 0.022 0.286 0.006 0.0 0.0 0.0 0.0 0.0 0.0 0.0 0.0 0.0 0.0 0.0 0.0
0.105 0.061 0.069 0.111 0.208 0.173 0.028 0.107 0.138 0.0 0.0 0.0 0.0 0.0 0.0 0.0 0.0 0.0 0.0 0.0 0.0
0.018 0.003 0.222 0.255 0.163 0.123 0.109 0.077 0.03 0.0 0.0 0.0 0.0 0.0 0.0 0.0 0.0 0.0 0.0 0.0 0.0
0.245 0.09 0.125 0.018 0.068 0.058 0.061 0.071 0.264 0.0 0.0 0.0 0.0 0.0 0.0 0.0 0.0 0.0 0.0 0.0 0.0
0.116 0.062 0.114 0.028 0.128 0.16 0.179 0.172 0.041 0.0 0.0 0.0 0.0 0.0 0.0 0.0 0.0 0.0 0.0 0.0 0.0
0.05 0.158 0.018 0.093 0.231 0.001 0.201 0.228 0.02 0.0 0.0 0.0 0.0 0.0 0.0 0.0 0.0 0.0 0.0 0.0 0.0
0.097 0.137 0.092 0.027 0.134 0.099 0.142 0.129 0.143 0.0 0.0 0.0 0.0 0.0 0.0 0.0 0.0 0.0 0.0 0.0 0.0
0.071 0.006 0.194 0.174 0.105 0.088 0.061 0.166 0.135 0.0 0.0 0.0 0.0 0.0 0.0 0.0 0.0 0.0 0.0 0.0 0.0
0.024 0.028 0.186 0.203 0.11 0.17 0.043 0.042 0.194 0.0 0.0 0.0 0.0 0.0 0.0 0.0 0.0 0.0 0.0 0.0 0.0
0.017 0.062 0.178 0.199 0.14 0.103 0.12 0.069 0.112 0.0 0.0 0.0 0.0 0.0 0.0 0.0 0.0 0.0 0.0 0.0 0.0
0.068 0.046 0.072 0.193 0.079 0.142 0.071 0.193 0.136 0.0 0.0 0.0 0.0 0.0 0.0 0.0 0.0 0.0 0.0 0.0 0.0
0.125 0.148 0.075 0.125 0.052 0.117 0.115 0.157 0.086 0.0 0.0 0.0 0.0 0.0 0.0 0.0 0.0 0.0 0.0 0.0 0.0
0.104 0.216 0.143 0.069 0.011 0.14 0.057 0.143 0.117 0.0 0.0 0.0 0.0 0.0 0.0 0.0 0.0 0.0 0.0 0.0 0.0
0.199 0.012 0.115 0.029 0.085 0.156 0.023 0.167 0.214 0.0 0.0 0.0 0.0 0.0 0.0 0.0 0.0 0.0 0.0 0.0 0.0
0.098 0.111 0.148 0.201 0.013 0.198 0.01 0.087 0.134 0.0 0.0 0.0 0.0 0.0 0.0 0.0 0.0 0.0 0.0 0.0 0.0
0.078 0.223 0.15 0.016 0.062 0.096 0.118 0.232 0.025 0.0 0.0 0.0 0.0 0.0 0.0 0.0 0.0 0.0 0.0 0.0 0.0
0.226 0.036 0.024 0.134 0.255 0.1 0.051 0.045 0.129 0.0 0.0 0.0 0.0 0.0 0.0 0.0 0.0 0.0 0.0 0.0 0.0
0.008 0.088 0.099 0.111 0.177 0.171 0.034 0.157 0.155 0.0 0.0 0.0 0.0 0.0 0.0 0.0 0.0 0.0 0.0 0.0 0.0
0.098 0.089 0.088 0.063 0.202 0.147 0.206 0.009 0.098 0.0 0.0 0.0 0.0 0.0 0.0 0.0 0.0 0.0 0.0 0.0 0.0
0.002 0.131 0.259 0.162 0.004 0.026 0.069 0.251 0.096 0.0 0.0 0.0 0.0 0.0 0.0 0.0 0.0 0.0 0.0 0.0 0.0
0.067 0.068 0.049 0.267 0.006 0.004 0.257 0.066 0.216 0.0 0.0 0.0 0.0 0.0 0.0 0.0 0.0 0.0 0.0 0.0 0.0
0.252 0.026 0.142 0.105 0.018 0.059 0.104 0.192 0.102 0.0 0.0 0.0 0.0 0.0 0.0 0.0 0.0 0.0 0.0 0.0 0.0
0.16 0.129 0.006 0.131 0.059 0.177 0.133 0.041 0.164 0.0 0.0 0.0 0.0 0.0 0.0 0.0 0.0 0.0 0.0 0.0 0.0
0.038 0.285 0.116 0.068 0.108 0.162 0.013 0.132 0.078 0.0 0.0 0.0 0.0 0.0 0.0 0.0 0.0 0.0 0.0 0.0 0.0
0.166 0.171 0.059 0.059 0.042 0.229 0.013 0.05 0.211 0.0 0.0 0.0 0.0 0.0 0.0 0.0 0.0 0.0 0.0 0.0 0.0
0.1 0.146 0.179 0.066 0.111 0.086 0.133 0.076 0.103 0.0 0.0 0.0 0.0 0.0 0.0 0.0 0.0 0.0 0.0 0.0 0.0
0.014 0.083 0.061 0.093 0.045 0.205 0.112 0.159 0.228 0.0 0.0 0.0 0.0 0.0 0.0 0.0 0.0 0.0 0.0 0.0 0.0
0.122 0.085 0.173 0.041 0.193 0.104 0.099 0.162 0.021 0.0 0.0 0.0 0.0 0.0 0.0 0.0 0.0 0.0 0.0 0.0 0.0
0.206 0.145 0.067 0.023 0.168 0.002 0.199 0.167 0.023 0.0 0.0 0.0 0.0 0.0 0.0 0.0 0.0 0.0 0.0 0.0 0.0
0.109 0.163 0.169 0.029 0.171 0.089 0.209 0.017 0.044 0.0 0.0 0.0 0.0 0.0 0.0 0.0 0.0 0.0 0.0 0.0 0.0
0.179 0.001 0.187 0.052 0.122 0.068 0.072 0.203 0.116 0.0 0.0 0.0 0.0 0.0 0.0 0.0 0.0 0.0 0.0 0.0 0.0
0.003 0.251 0.169 0.049 0.104 0.013 0.038 0.115 0.258 0.0 0.0 0.0 0.0 0.0 0.0 0.0 0.0 0.0 0.0 0.0 0.0
0.133 0.075 0.02 0.118 0.127 0.066 0.202 0.048 0.211 0.0 0.0 0.0 0.0 0.0 0.0 0.0 0.0 0.0 0.0 0.0 0.0
0.122 0.111 0.142 0.015 0.125 0.123 0.109 0.125 0.128 0.0 0.0 0.0 0.0 0.0 0.0 0.0 0.0 0.0 0.0 0.0 0.0
0.088 0.036 0.087 0.207 0.237 0.033 0.021 0.181 0.11 0.0 0.0 0.0 0.0 0.0 0.0 0.0 0.0 0.0 0.0 0.0 0.0
0.095 0.102 0.197 0.182 0.011 0.138 0.083 0.027 0.165 0.0 0.0 0.0 0.0 0.0 0.0 0.0 0.0 0.0 0.0 0.0 0.0
0.036 0.196 0.034 0.107 0.164 0.015 0.1 0.165 0.183 0.0 0.0 0.0 0.0 0.0 0.0 0.0 0.0 0.0 0.0 0.0 0.0
0.147 0.043 0.001 0.05 0.148 0.168 0.004 0.225 0.214 0.0 0.0 0.0 0.0 0.0 0.0 0.0 0.0 0.0 0.0 0.0 0.0
0.159 0.113 0.09 0.121 0.068 0.137 0.093 0.004 0.215 0.0 0.0 0.0 0.0 0.0 0.0 0.0 0.0 0.0 0.0 0.0 0.0
0.014 0.018 0.069 0.012 0.048 0.223 0.229 0.183 0.204 0.0 0.0 0.0 0.0 0.0 0.0 0.0 0.0 0.0 0.0 0.0 0.0
0.118 0.045 0.108 0.099 0.203 0.144 0.103 0.101 0.079 0.0 0.0 0.0 0.0 0.0 0.0 0.0 0.0 0.0 0.0 0.0 0.0
0.186 0.14 0.166 0.007 0.174 0.193 0.086 0.002 0.046 0.0 0.0 0.0 0.0 0.0 0.0 0.0 0.0 0.0 0.0 0.0 0.0
0.276 0.122 0.077 0.009 0.098 0.197 0.093 0.06 0.068 0.0 0.0 0.0 0.0 0.0 0.0 0.0 0.0 0.0 0.0 0.0 0.0
0.183 0.008 0.159 0.068 0.151 0.127 0.064 0.117 0.123 0.0 0.0 0.0 0.0 0.0 0.0 0.0 0.0 0.0 0.0 0.0 0.0
0.021 0.127 0.115 0.069 0.066 0.136 0.094 0.177 0.195 0.0 0.0 0.0 0.0 0.0 0.0 0.0 0.0 0.0 0.0 0.0 0.0
0.116 0.129 0.072 0.152 0.111 0.005 0.136 0.185 0.094 0.0 0.0 0.0 0.0 0.0 0.0 0.0 0.0 0.0 0.0 0.0 0.0
0.153 0.027 0.143 0.138 0.173 0.075 0.014 0.131 0.146 0.0 0.0 0.0 0.0 0.0 0.0 0.0 0.0 0.0 0.0 0.0 0.0
0.084 0.187 0.025 0.09 0.166 0.156 0.153 0.121 0.018 0.0 0.0 0.0 0.0 0.0 0.0 0.0 0.0 0.0 0.0 0.0 0.0
0.055 0.038 0.162 0.148 0.089 0.056 0.138 0.124 0.19 0.0 0.0 0.0 0.0 0.0 0.0 0.0 0.0 0.0 0.0 0.0 0.0
0.198 0.004 0.182 0.178 0.091 0.032 0.027 0.134 0.154 0.0 0.0 0.0 0.0 0.0 0.0 0.0 0.0 0.0 0.0 0.0 0.0
0.039 0.077 0.231 0.151 0.082 0.085 0.071 0.179 0.085 0.0 0.0 0.0 0.0 0.0 0.0 0.0 0.0 0.0 0.0 0.0 0.0
0.226 0.014 0.134 0.18 0.088 0.089 0.207 0.003 0.059 0.0 0.0 0.0 0.0 0.0 0.0 0.0 0.0 0.0 0.0 0.0 0.0
0.205 0.17 0.02 0.083 0.159 0.138 0.106 0.065 0.054 0.0 0.0 0.0 0.0 0.0 0.0 0.0 0.0 0.0 0.0 0.0 0.0
0.085 0.153 0.083 0.14 0.205 0.159 0.023 0.121 0.031 0.0 0.0 0.0 0.0 0.0 0.0 0.0 0.0 0.0 0.0 0.0 0.0
0.16 0.07 0.028 0.054 0.049 0.146 0.162 0.185 0.146 0.0 0.0 0.0 0.0 0.0 0.0 0.0 0.0 0.0 0.0 0.0 0.0
0.012 0.082 0.15 0.191 0.073 0.187 0.119 0.105 0.081 0.0 0.0 0.0 0.0 0.0 0.0 0.0 0.0 0.0 0.0 0.0 0.0
0.139 0.188 0.178 0.002 0.004 0.132 0.073 0.119 0.165 0.0 0.0 0.0 0.0 0.0 0.0 0.0 0.0 0.0 0.0 0.0 0.0
0.121 0.146 0.129 0.03 0.071 0.135 0.131 0.112 0.125 0.0 0.0 0.0 0.0 0.0 0.0 0.0 0.0 0.0 0.0 0.0 0.0
0.042 0.117 0.09 0.191 0.048 0.093 0.224 0.188 0.007 0.0 0.0 0.0 0.0 0.0 0.0 0.0 0.0 0.0 0.0 0.0 0.0
0.06 0.099 0.166 0.022 0.147 0.219 0.218 0.027 0.042 0.0 0.0 0.0 0.0 0.0 0.0 0.0 0.0 0.0 0.0 0.0 0.0
0.079 0.228 0.149 0.119 0.054 0.185 0.166 0.003 0.017 0.0 0.0 0.0 0.0 0.0 0.0 0.0 0.0 0.0 0.0 0.0 0.0
0.162 0.007 0.059 0.113 0.229 0.183 0.023 0.052 0.172 0.0 0.0 0.0 0.0 0.0 0.0 0.0 0.0 0.0 0.0 0.0 0.0
0.119 0.116 0.045 0.146 0.031 0.099 0.182 0.129 0.133 0.0 0.0 0.0 0.0 0.0 0.0 0.0 0.0 0.0 0.0 0.0 0.0
0.154 0.087 0.193 0.068 0.193 0.069 0.207 0.023 0.006 0.0 0.0 0.0 0.0 0.0 0.0 0.0 0.0 0.0 0.0 0.0 0.0
0.149 0.095 0.201 0.056 0.177 0.009 0.175 0.052 0.086 0.0 0.0 0.0 0.0 0.0 0.0 0.0 0.0 0.0 0.0 0.0 0.0
0.152 0.093 0.134 0.032 0.08 0.196 0.099 0.031 0.183 0.0 0.0 0.0 0.0 0.0 0.0 0.0 0.0 0.0 0.0 0.0 0.0
0.044 0.016 0.093 0.048 0.153 0.198 0.091 0.231 0.126 0.0 0.0 0.0 0.0 0.0 0.0 0.0 0.0 0.0 0.0 0.0 0.0
0.088 0.064 0.005 0.116 0.03 0.162 0.082 0.204 0.249 0.0 0.0 0.0 0.0 0.0 0.0 0.0 0.0 0.0 0.0 0.0 0.0
0.147 0.015 0.044 0.146 0.17 0.131 0.03 0.17 0.147 0.0 0.0 0.0 0.0 0.0 0.0 0.0 0.0 0.0 0.0 0.0 0.0
0.105 0.112 0.063 0.042 0.079 0.165 0.206 0.0 0.228 0.0 0.0 0.0 0.0 0.0 0.0 0.0 0.0 0.0 0.0 0.0 0.0
0.018 0.141 0.135 0.096 0.132 0.059 0.009 0.209 0.201 0.0 0.0 0.0 0.0 0.0 0.0 0.0 0.0 0.0 0.0 0.0 0.0
0.013 0.301 0.19 0.057 0.06 0.096 0.229 0.004 0.05 0.0 0.0 0.0 0.0 0.0 0.0 0.0 0.0 0.0 0.0 0.0 0.0
0.173 0.161 0.16 0.144 0.01 0.028 0.174 0.115 0.035 0.0 0.0 0.0 0.0 0.0 0.0 0.0 0.0 0.0 0.0 0.0 0.0
0.084 0.202 0.144 0.065 0.11 0.025 0.066 0.102 0.202 0.0 0.0 0.0 0.0 0.0 0.0 0.0 0.0 0.0 0.0 0.0 0.0
0.045 0.205 0.167 0.081 0.018 0.105 0.018 0.231 0.13 0.0 0.0 0.0 0.0 0.0 0.0 0.0 0.0 0.0 0.0 0.0 0.0
0.185 0.161 0.092 0.042 0.037 0.225 0.134 0.086 0.038 0.0 0.0 0.0 0.0 0.0 0.0 0.0 0.0 0.0 0.0 0.0 0.0
0.155 0.064 0.07 0.118 0.085 0.088 0.148 0.057 0.215 0.0 0.0 0.0 0.0 0.0 0.0 0.0 0.0 0.0 0.0 0.0 0.0
0.036 0.215 0.123 0.038 0.005 0.109 0.181 0.099 0.194 0.0 0.0 0.0 0.0 0.0 0.0 0.0 0.0 0.0 0.0 0.0 0.0
0.129 0.014 0.142 0.156 0.012 0.122 0.139 0.137 0.149 0.0 0.0 0.0 0.0 0.0 0.0 0.0 0.0 0.0 0.0 0.0 0.0
0.168 0.087 0.06 0.203 0.169 0.208 0.006 0.037 0.062 0.0 0.0 0.0 0.0 0.0 0.0 0.0 0.0 0.0 0.0 0.0 0.0
0.004 0.251 0.267 0.031 0.253 0.01 0.155 0.006 0.023 0.0 0.0 0.0 0.0 0.0 0.0 0.0 0.0 0.0 0.0 0.0 0.0
0.102 0.181 0.21 0.106 0.013 0.014 0.126 0.085 0.163 0.0 0.0 0.0 0.0 0.0 0.0 0.0 0.0 0.0 0.0 0.0 0.0
0.155 0.019 0.016 0.006 0.171 0.206 0.19 0.034 0.203 0.0 0.0 0.0 0.0 0.0 0.0 0.0 0.0 0.0 0.0 0.0 0.0
0.125 0.084 0.169 0.12 0.062 0.203 0.07 0.018 0.149 0.0 0.0 0.0 0.0 0.0 0.0 0.0 0.0 0.0 0.0 0.0 0.0
0.184 0.083 0.097 0.188 0.137 0.051 0.165 0.03 0.065 0.0 0.0 0.0 0.0 0.0 0.0 0.0 0.0 0.0 0.0 0.0 0.0
0.103 0.157 0.098 0.122 0.166 0.059 0.049 0.086 0.16 0.0 0.0 0.0 0.0 0.0 0.0 0.0 0.0 0.0 0.0 0.0 0.0
0.157 0.163 0.141 0.081 0.189 0.02 0.034 0.205 0.01 0.0 0.0 0.0 0.0 0.0 0.0 0.0 0.0 0.0 0.0 0.0 0.0
0.122 0.092 0.195 0.107 0.08 0.077 0.027 0.155 0.145 0.0 0.0 0.0 0.0 0.0 0.0 0.0 0.0 0.0 0.0 0.0 0.0
0.173 0.185 0.11 0.025 0.016 0.1 0.16 0.083 0.148 0.0 0.0 0.0 0.0 0.0 0.0 0.0 0.0 0.0 0.0 0.0 0.0
0.03 0.123 0.077 0.032 0.11 0.203 0.247 0.001 0.177 0.0 0.0 0.0 0.0 0.0 0.0 0.0 0.0 0.0 0.0 0.0 0.0
0.016 0.116 0.102 0.199 0.032 0.177 0.179 0.151 0.028 0.0 0.0 0.0 0.0 0.0 0.0 0.0 0.0 0.0 0.0 0.0 0.0
0.123 0.109 0.111 0.052 0.097 0.126 0.149 0.116 0.117 0.0 0.0 0.0 0.0 0.0 0.0 0.0 0.0 0.0 0.0 0.0 0.0
0.071 0.234 0.13 0.125 0.089 0.1 0.144 0.01 0.097 0.0 0.0 0.0 0.0 0.0 0.0 0.0 0.0 0.0 0.0 0.0 0.0
0.155 0.119 0.069 0.076 0.14 0.1 0.149 0.151 0.041 0.0 0.0 0.0 0.0 0.0 0.0 0.0 0.0 0.0 0.0 0.0 0.0
0.203 0.084 0.1 0.241 0.181 0.053 0.108 0.01 0.02 0.0 0.0 0.0 0.0 0.0 0.0 0.0 0.0 0.0 0.0 0.0 0.0
0.233 0.064 0.019 0.171 0.079 0.076 0.097 0.164 0.097 0.0 0.0 0.0 0.0 0.0 0.0 0.0 0.0 0.0 0.0 0.0 0.0
0.097 0.186 0.086 0.092 0.172 0.098 0.081 0.023 0.165 0.0 0.0 0.0 0.0 0.0 0.0 0.0 0.0 0.0 0.0 0.0 0.0
0.173 0.118 0.103 0.005 0.088 0.093 0.2 0.143 0.077 0.0 0.0 0.0 0.0 0.0 0.0 0.0 0.0 0.0 0.0 0.0 0.0
0.05 0.176 0.003 0.181 0.184 0.167 0.077 0.082 0.08 0.0 0.0 0.0 0.0 0.0 0.0 0.0 0.0 0.0 0.0 0.0 0.0
0.097 0.181 0.029 0.162 0.239 0.007 0.008 0.191 0.086 0.0 0.0 0.0 0.0 0.0 0.0 0.0 0.0 0.0 0.0 0.0 0.0
0.151 0.078 0.104 0.045 0.07 0.077 0.182 0.158 0.135 0.0 0.0 0.0 0.0 0.0 0.0 0.0 0.0 0.0 0.0 0.0 0.0
0.174 0.15 0.08 0.097 0.089 0.084 0.069 0.135 0.122 0.0 0.0 0.0 0.0 0.0 0.0 0.0 0.0 0.0 0.0 0.0 0.0
0.251 0.021 0.231 0.033 0.075 0.049 0.284 0.014 0.042 0.0 0.0 0.0 0.0 0.0 0.0 0.0 0.0 0.0 0.0 0.0 0.0
0.16 0.186 0.135 0.059 0.095 0.044 0.155 0.043 0.123 0.0 0.0 0.0 0.0 0.0 0.0 0.0 0.0 0.0 0.0 0.0 0.0
0.177 0.06 0.022 0.171 0.17 0.152 0.106 0.089 0.053 0.0 0.0 0.0 0.0 0.0 0.0 0.0 0.0 0.0 0.0 0.0 0.0
0.12 0.067 0.129 0.106 0.117 0.145 0.076 0.073 0.167 0.0 0.0 0.0 0.0 0.0 0.0 0.0 0.0 0.0 0.0 0.0 0.0
0.215 0.076 0.074 0.248 0.027 0.196 0.061 0.003 0.1 0.0 0.0 0.0 0.0 0.0 0.0 0.0 0.0 0.0 0.0 0.0 0.0
0.135 0.002 0.094 0.161 0.156 0.084 0.094 0.159 0.115 0.0 0.0 0.0 0.0 0.0 0.0 0.0 0.0 0.0 0.0 0.0 0.0
0.039 0.208 0.167 0.116 0.037 0.024 0.204 0.148 0.057 0.0 0.0 0.0 0.0 0.0 0.0 0.0 0.0 0.0 0.0 0.0 0.0
0.039 0.152 0.14 0.19 0.08 0.127 0.091 0.022 0.159 0.0 0.0 0.0 0.0 0.0 0.0 0.0 0.0 0.0 0.0 0.0 0.0
0.027 0.138 0.146 0.04 0.144 0.099 0.096 0.138 0.172 0.0 0.0 0.0 0.0 0.0 0.0 0.0 0.0 0.0 0.0 0.0 0.0
0.053 0.192 0.066 0.045 0.168 0.143 0.055 0.098 0.18 0.0 0.0 0.0 0.0 0.0 0.0 0.0 0.0 0.0 0.0 0.0 0.0
0.076 0.041 0.161 0.181 0.097 0.158 0.1 0.055 0.131 0.0 0.0 0.0 0.0 0.0 0.0 0.0 0.0 0.0 0.0 0.0 0.0
0.137 0.111 0.129 0.124 0.118 0.157 0.151 0.027 0.046 0.0 0.0 0.0 0.0 0.0 0.0 0.0 0.0 0.0 0.0 0.0 0.0
0.003 0.192 0.128 0.117 0.067 0.208 0.188 0.086 0.011 0.0 0.0 0.0 0.0 0.0 0.0 0.0 0.0 0.0 0.0 0.0 0.0
0.161 0.165 0.036 0.109 0.152 0.083 0.17 0.04 0.084 0.0 0.0 0.0 0.0 0.0 0.0 0.0 0.0 0.0 0.0 0.0 0.0
0.156 0.132 0.001 0.02 0.198 0.014 0.197 0.11 0.172 0.0 0.0 0.0 0.0 0.0 0.0 0.0 0.0 0.0 0.0 0.0 0.0
0.214 0.109 0.206 0.056 0.184 0.054 0.015 0.113 0.049 0.0 0.0 0.0 0.0 0.0 0.0 0.0 0.0 0.0 0.0 0.0 0.0
0.236 0.094 0.035 0.23 0.035 0.137 0.051 0.154 0.028 0.0 0.0 0.0 0.0 0.0 0.0 0.0 0.0 0.0 0.0 0.0 0.0
0.058 0.019 0.076 0.066 0.205 0.216 0.145 0.1 0.115 0.0 0.0 0.0 0.0 0.0 0.0 0.0 0.0 0.0 0.0 0.0 0.0
0.119 0.134 0.098 0.057 0.161 0.101 0.179 0.039 0.112 0.0 0.0 0.0 0.0 0.0 0.0 0.0 0.0 0.0 0.0 0.0 0.0
0.108 0.054 0.156 0.061 0.115 0.108 0.161 0.168 0.069 0.0 0.0 0.0 0.0 0.0 0.0 0.0 0.0 0.0 0.0 0.0 0.0
0.113 0.012 0.117 0.067 0.238 0.21 0.124 0.026 0.093 0.0 0.0 0.0 0.0 0.0 0.0 0.0 0.0 0.0 0.0 0.0 0.0
0.281 0.219 0.105 0.054 0.188 0.014 0.049 0.086 0.004 0.0 0.0 0.0 0.0 0.0 0.0 0.0 0.0 0.0 0.0 0.0 0.0
0.119 0.069 0.006 0.203 0.194 0.098 0.112 0.04 0.159 0.0 0.0 0.0 0.0 0.0 0.0 0.0 0.0 0.0 0.0 0.0 0.0
0.096 0.047 0.147 0.015 0.159 0.129 0.057 0.181 0.169 0.0 0.0 0.0 0.0 0.0 0.0 0.0 0.0 0.0 0.0 0.0 0.0
